…
    ## 
    ## Correlation matrix not shown by default, as p = 32 > 12.
    ## Use print(x, correlation=TRUE)  or
    ##     vcov(x)        if you need it

    ## convergence code: 0
    ## Model failed to converge with max|grad| = 0.00234679 (tol = 0.002, component 1)

``` r
tidy_lm_z1 <- tidy(lm_z1)
tidy_lm_z1
```

    ## # A tibble: 39 x 6
    ##    effect group term                                estimate std.error statistic
    ##    <chr>  <chr> <chr>                                  <dbl>     <dbl>     <dbl>
    ##  1 fixed  <NA>  (Intercept)                         -4.78      1.94        -2.47
    ##  2 fixed  <NA>  scale(yes_scale_t1)                  0.210     0.00330     63.6 
    ##  3 fixed  <NA>  scale(I(median_income_county_t2 - ~ -0.0306    0.0116      -2.63
    ##  4 fixed  <NA>  median_income_county_scale_t1       -0.0406    0.0147      -2.77
    ##  5 fixed  <NA>  scale(I(physicians_scale_t2 - phys~  0.00872   0.00528      1.65
    ##  6 fixed  <NA>  physicians_scale_t1                  0.0173    0.00688      2.52
    ##  7 fixed  <NA>  scale(I(median_monthly_housing_cos~  0.0268    0.0113       2.37
    ##  8 fixed  <NA>  median_monthly_housing_cost_county~  0.0488    0.0159       3.08
    ##  9 fixed  <NA>  scale(I(income_t2 - income_t1))      0.0112    0.00398      2.82
    ## 10 fixed  <NA>  income_scale_t1                      0.0471    0.00547      8.62
    ## # ... with 29 more rows
…
    ## 
    ## Correlation matrix not shown by default, as p = 32 > 12.
    ## Use print(x, correlation=TRUE)  or
    ##     vcov(x)        if you need it

    ## convergence code: 0
    ## Model failed to converge with max|grad| = 0.0270201 (tol = 0.002, component 1)

``` r
tidy_lm_z2 <- tidy(lm_z2)
tidy_lm_z2
```

    ## # A tibble: 39 x 6
    ##    effect group term                                estimate std.error statistic
    ##    <chr>  <chr> <chr>                                  <dbl>     <dbl>     <dbl>
    ##  1 fixed  <NA>  (Intercept)                         -2.34      1.94        -1.21
    ##  2 fixed  <NA>  scale(yes_scale_t1)                  0.110     0.00275     40.1 
    ##  3 fixed  <NA>  scale(I(median_income_county_t2 - ~ -0.0398    0.0124      -3.20
    ##  4 fixed  <NA>  median_income_county_scale_t1       -0.0406    0.0167      -2.44
    ##  5 fixed  <NA>  scale(I(physicians_scale_t2 - phys~  0.00577   0.00559      1.03
    ##  6 fixed  <NA>  physicians_scale_t1                  0.0180    0.00766      2.35
    ##  7 fixed  <NA>  scale(I(median_monthly_housing_cos~  0.0448    0.0119       3.75
    ##  8 fixed  <NA>  median_monthly_housing_cost_county~  0.0532    0.0182       2.91
    ##  9 fixed  <NA>  scale(I(income_t2 - income_t1))      0.0171    0.00341      5.03
    ## 10 fixed  <NA>  income_scale_t1                      0.0474    0.00543      8.74
    ## # ... with 29 more rows
…
    ## 
    ## Correlation matrix not shown by default, as p = 32 > 12.
    ## Use print(x, correlation=TRUE)  or
    ##     vcov(x)        if you need it

    ## convergence code: 0
    ## Model failed to converge with max|grad| = 0.00560505 (tol = 0.002, component 1)

``` r
tidy_lm_f1 <- tidy(lm_f1)
tidy_lm_f1
```

    ## # A tibble: 39 x 6
    ##    effect group term                                estimate std.error statistic
    ##    <chr>  <chr> <chr>                                  <dbl>     <dbl>     <dbl>
    ##  1 fixed  <NA>  (Intercept)                          1.26      2.49        0.506
    ##  2 fixed  <NA>  scale(yes_scale_t1)                  0.214     0.00431    49.8  
    ##  3 fixed  <NA>  scale(I(median_income_county_t2 - ~ -0.0382    0.0172     -2.22 
    ##  4 fixed  <NA>  median_income_county_scale_t1       -0.0276    0.0196     -1.40 
    ##  5 fixed  <NA>  scale(I(physicians_scale_t2 - phys~  0.0217    0.00819     2.65 
    ##  6 fixed  <NA>  physicians_scale_t1                  0.0300    0.00963     3.11 
    ##  7 fixed  <NA>  scale(I(median_monthly_housing_cos~  0.0348    0.0165      2.11 
    ##  8 fixed  <NA>  median_monthly_housing_cost_county~  0.0408    0.0211      1.93 
    ##  9 fixed  <NA>  scale(I(income_t2 - income_t1))      0.00543   0.00531     1.02 
    ## 10 fixed  <NA>  income_scale_t1                      0.0291    0.00716     4.06 
    ## # ... with 29 more rows
…
    ## 
    ## Correlation matrix not shown by default, as p = 32 > 12.
    ## Use print(x, correlation=TRUE)  or
    ##     vcov(x)        if you need it

    ## convergence code: 0
    ## Model failed to converge with max|grad| = 0.00371616 (tol = 0.002, component 1)

``` r
tidy_lm_f2 <- tidy(lm_f2)
tidy_lm_f2
```

    ## # A tibble: 39 x 6
    ##    effect group term                                estimate std.error statistic
    ##    <chr>  <chr> <chr>                                  <dbl>     <dbl>     <dbl>
    ##  1 fixed  <NA>  (Intercept)                           3.14     2.54         1.23
    ##  2 fixed  <NA>  scale(yes_scale_t1)                   0.117    0.00357     32.9 
    ##  3 fixed  <NA>  scale(I(median_income_county_t2 - ~  -0.0513   0.0193      -2.66
    ##  4 fixed  <NA>  median_income_county_scale_t1        -0.0316   0.0219      -1.44
    ##  5 fixed  <NA>  scale(I(physicians_scale_t2 - phys~   0.0222   0.00892      2.49
    ##  6 fixed  <NA>  physicians_scale_t1                   0.0374   0.0104       3.60
    ##  7 fixed  <NA>  scale(I(median_monthly_housing_cos~   0.0562   0.0184       3.06
    ##  8 fixed  <NA>  median_monthly_housing_cost_county~   0.0440   0.0239       1.84
    ##  9 fixed  <NA>  scale(I(income_t2 - income_t1))       0.0141   0.00452      3.13
    ## 10 fixed  <NA>  income_scale_t1                       0.0357   0.00712      5.01
    ## # ... with 29 more rows
…
    ## 
    ## Correlation matrix not shown by default, as p = 32 > 12.
    ## Use print(x, correlation=TRUE)  or
    ##     vcov(x)        if you need it

    ## convergence code: 0
    ## Model failed to converge with max|grad| = 0.00578053 (tol = 0.002, component 1)

``` r
tidy_lm_z1 <- tidy(lm_z1)
tidy_lm_z1
```

    ## # A tibble: 39 x 6
    ##    effect group term                                estimate std.error statistic
    ##    <chr>  <chr> <chr>                                  <dbl>     <dbl>     <dbl>
    ##  1 fixed  <NA>  (Intercept)                         -4.84      1.84       -2.64 
    ##  2 fixed  <NA>  scale(yes_scale_t1)                  0.306     0.00324    94.4  
    ##  3 fixed  <NA>  scale(I(median_income_county_t2 - ~ -0.0348    0.0121     -2.86 
    ##  4 fixed  <NA>  median_income_county_scale_t1       -0.0552    0.0160     -3.46 
    ##  5 fixed  <NA>  scale(I(physicians_scale_t2 - phys~  0.00523   0.00538     0.971
    ##  6 fixed  <NA>  physicians_scale_t1                  0.0207    0.00726     2.86 
    ##  7 fixed  <NA>  scale(I(median_monthly_housing_cos~  0.0584    0.0115      5.06 
    ##  8 fixed  <NA>  median_monthly_housing_cost_county~  0.108     0.0174      6.24 
    ##  9 fixed  <NA>  scale(I(income_t2 - income_t1))      0.00287   0.00359     0.801
    ## 10 fixed  <NA>  income_scale_t1                      0.0500    0.00529     9.46 
    ## # ... with 29 more rows
…
    ## 
    ## Correlation matrix not shown by default, as p = 32 > 12.
    ## Use print(x, correlation=TRUE)  or
    ##     vcov(x)        if you need it

``` r
tidy_lm_z2 <- tidy(lm_z2)
tidy_lm_z2
```

    ## # A tibble: 39 x 6
    ##    effect group term                                estimate std.error statistic
    ##    <chr>  <chr> <chr>                                  <dbl>     <dbl>     <dbl>
    ##  1 fixed  <NA>  (Intercept)                         -3.07      1.91        -1.61
    ##  2 fixed  <NA>  scale(yes_scale_t1)                  0.143     0.00274     52.3 
    ##  3 fixed  <NA>  scale(I(median_income_county_t2 - ~ -0.0490    0.0139      -3.53
    ##  4 fixed  <NA>  median_income_county_scale_t1       -0.0664    0.0192      -3.46
    ##  5 fixed  <NA>  scale(I(physicians_scale_t2 - phys~  0.00791   0.00609      1.30
    ##  6 fixed  <NA>  physicians_scale_t1                  0.0204    0.00857      2.38
    ##  7 fixed  <NA>  scale(I(median_monthly_housing_cos~  0.0766    0.0130       5.91
    ##  8 fixed  <NA>  median_monthly_housing_cost_county~  0.138     0.0210       6.55
    ##  9 fixed  <NA>  scale(I(income_t2 - income_t1))      0.0122    0.00304      4.01
    ## 10 fixed  <NA>  income_scale_t1                      0.0506    0.00544      9.29
    ## # ... with 29 more rows
…
    ## 
    ## Correlation matrix not shown by default, as p = 32 > 12.
    ## Use print(x, correlation=TRUE)  or
    ##     vcov(x)        if you need it

    ## convergence code: 0
    ## Model failed to converge with max|grad| = 0.00273402 (tol = 0.002, component 1)

``` r
tidy_lm_f1 <- tidy(lm_f1)
tidy_lm_f1
```

    ## # A tibble: 39 x 6
    ##    effect group term                                estimate std.error statistic
    ##    <chr>  <chr> <chr>                                  <dbl>     <dbl>     <dbl>
    ##  1 fixed  <NA>  (Intercept)                         -3.63      2.41       -1.50 
    ##  2 fixed  <NA>  scale(yes_scale_t1)                  0.303     0.00425    71.3  
    ##  3 fixed  <NA>  scale(I(median_income_county_t2 - ~ -0.0540    0.0186     -2.90 
    ##  4 fixed  <NA>  median_income_county_scale_t1       -0.0583    0.0208     -2.81 
    ##  5 fixed  <NA>  scale(I(physicians_scale_t2 - phys~  0.0221    0.00854     2.59 
    ##  6 fixed  <NA>  physicians_scale_t1                  0.0375    0.00990     3.79 
    ##  7 fixed  <NA>  scale(I(median_monthly_housing_cos~  0.0876    0.0175      4.99 
    ##  8 fixed  <NA>  median_monthly_housing_cost_county~  0.116     0.0225      5.18 
    ##  9 fixed  <NA>  scale(I(income_t2 - income_t1))     -0.00243   0.00491    -0.494
    ## 10 fixed  <NA>  income_scale_t1                      0.0383    0.00702     5.46 
    ## # ... with 29 more rows
…
    ## 
    ## Correlation matrix not shown by default, as p = 32 > 12.
    ## Use print(x, correlation=TRUE)  or
    ##     vcov(x)        if you need it

    ## convergence code: 0
    ## Model failed to converge with max|grad| = 0.00325565 (tol = 0.002, component 1)

``` r
tidy_lm_f2 <- tidy(lm_f2)
tidy_lm_f2
```

    ## # A tibble: 39 x 6
    ##    effect group term                                estimate std.error statistic
    ##    <chr>  <chr> <chr>                                  <dbl>     <dbl>     <dbl>
    ##  1 fixed  <NA>  (Intercept)                          -0.748    2.59       -0.289
    ##  2 fixed  <NA>  scale(yes_scale_t1)                   0.143    0.00358    40.0  
    ##  3 fixed  <NA>  scale(I(median_income_county_t2 - ~  -0.0761   0.0211     -3.61 
    ##  4 fixed  <NA>  median_income_county_scale_t1        -0.0748   0.0244     -3.06 
    ##  5 fixed  <NA>  scale(I(physicians_scale_t2 - phys~   0.0305   0.00958     3.19 
    ##  6 fixed  <NA>  physicians_scale_t1                   0.0375   0.0113      3.33 
    ##  7 fixed  <NA>  scale(I(median_monthly_housing_cos~   0.123    0.0199      6.17 
    ##  8 fixed  <NA>  median_monthly_housing_cost_county~   0.160    0.0268      5.97 
    ##  9 fixed  <NA>  scale(I(income_t2 - income_t1))       0.0131   0.00407     3.21 
    ## 10 fixed  <NA>  income_scale_t1                       0.0494   0.00723     6.84 
    ## # ... with 29 more rows
…
